…
sim_results <- bind_rows(output) %>% 
  mutate(null_rejected = p.value <= 0.05)
sim_results
```

    ## # A tibble: 35,000 × 4
    ##    estimate p.value set_mu null_rejected
    ##       <dbl>   <dbl>  <int> <lgl>        
    ##  1   -1.52   0.0812      0 FALSE        
    ##  2   -0.208  0.817       0 FALSE        
    ##  3   -0.554  0.559       0 FALSE        
    ##  4   -0.678  0.497       0 FALSE        
    ##  5    0.373  0.718       0 FALSE        
    ##  6    0.643  0.474       0 FALSE        
    ##  7   -0.671  0.483       0 FALSE        
    ##  8    0.826  0.354       0 FALSE        
    ##  9    1.02   0.296       0 FALSE        
    ## 10    1.14   0.113       0 FALSE        
    ## # ℹ 34,990 more rows
…
homicide_count_df <- homicide_df %>% 
  unite(city_state, city, state, sep = ", ") %>%
  group_by(city_state) %>% 
  summarize(total = n())

# Merging counts by status and totals 

homicide_table <- left_join(homicide_status_df, homicide_count_df, by = "city_state") %>% 
  pivot_wider(names_from = case_status, 
              values_from = count) %>% 
  replace_na(list(unsolved = 0))
homicide_table
```

    ## # A tibble: 51 × 4
    ## # Groups:   city_state [51]
    ##    city_state      total solved unsolved
    ##    <chr>           <int>  <int>    <int>
    ##  1 Albuquerque, NM   378    232      146
    ##  2 Atlanta, GA       973    600      373
    ##  3 Baltimore, MD    2827   1002     1825
    ##  4 Baton Rouge, LA   424    228      196
    ##  5 Birmingham, AL    800    453      347
    ##  6 Boston, MA        614    304      310
    ##  7 Buffalo, NY       521    202      319
    ##  8 Charlotte, NC     687    481      206
    ##  9 Chicago, IL      5535   1462     4073
    ## 10 Cincinnati, OH    694    385      309
    ## # ℹ 41 more rows
…
    ## Warning: There was 1 warning in `mutate()`.
    ## ℹ In argument: `est_props = map(...)`.
    ## ℹ In group 49: `city_state = "Tulsa, AL"`.
    ## Caused by warning in `prop.test()`:
    ## ! Chi-squared approximation may be incorrect

``` r
city_tests
```

    ## # A tibble: 51 × 6
    ## # Groups:   city_state [51]
    ##    city_state      unsolved total estimate conf.low conf.high
    ##    <chr>              <int> <int>    <dbl>    <dbl>     <dbl>
    ##  1 Albuquerque, NM      146   378    0.386    0.337     0.438
    ##  2 Atlanta, GA          373   973    0.383    0.353     0.415
    ##  3 Baltimore, MD       1825  2827    0.646    0.628     0.663
    ##  4 Baton Rouge, LA      196   424    0.462    0.414     0.511
    ##  5 Birmingham, AL       347   800    0.434    0.399     0.469
    ##  6 Boston, MA           310   614    0.505    0.465     0.545
    ##  7 Buffalo, NY          319   521    0.612    0.569     0.654
    ##  8 Charlotte, NC        206   687    0.300    0.266     0.336
    ##  9 Chicago, IL         4073  5535    0.736    0.724     0.747
    ## 10 Cincinnati, OH       309   694    0.445    0.408     0.483
    ## # ℹ 41 more rows
…
